{
    "title": "check",
    "image": null,
    "sections": [
        {
            "title": "check path",
            "oldId": "1234",
            "filePath":"description.md",
            "sections": [{
                    "title": "check codes",
                    "oldId": "1234",
                    "sections": [{
                            "title": "check path codes"
                        }
                    ]
                }
            ]
        },
        {
            "title": "check path",
            "oldId": "1234",
            "sections": [{
                    "title": "check codes",
                    "oldId": "1234",
                    "sections": [{
                            "title": "check path codes"
                        }
                    ]
                }
            ]
        }
    ]
}
